FPGAProgram/simulation/qsim/CODECSystem.msim.vcd
$comment
	File created using the following command:
		vcd file CODECSystem.msim.vcd -direction
$end
$date
	Fri Aug 28 19:41:26 2015
$end
$version
	ModelSim Version 10.1e
$end
$timescale
	1ps
$end
$scope module CODECSystem_vlg_vec_tst $end
$var reg 1 ! CPUCLK $end
$var reg 24 " DAdata [23:0] $end
$var wire 1 # c32 $end
$var wire 1 $ c64 $end
$var wire 1 % int [4] $end
$var wire 1 & int [3] $end
$var wire 1 ' int [2] $end
$var wire 1 ( int [1] $end
$var wire 1 ) int [0] $end
$var wire 1 * sampler $end
$scope module i1 $end
$var wire 1 + gnd $end
$var wire 1 , vcc $end
$var wire 1 - unknown $end
$var tri1 1 . devclrn $end
$var tri1 1 / devpor $end
$var tri1 1 0 devoe $end
$var wire 1 1 DAdata[0]~input_o $end
$var wire 1 2 DAdata[1]~input_o $end
$var wire 1 3 DAdata[2]~input_o $end
$var wire 1 4 DAdata[3]~input_o $end
$var wire 1 5 DAdata[4]~input_o $end
$var wire 1 6 DAdata[5]~input_o $end
$var wire 1 7 DAdata[6]~input_o $end
$var wire 1 8 DAdata[7]~input_o $end
$var wire 1 9 DAdata[8]~input_o $end
$var wire 1 : DAdata[9]~input_o $end
$var wire 1 ; DAdata[10]~input_o $end
$var wire 1 < DAdata[11]~input_o $end
$var wire 1 = DAdata[12]~input_o $end
$var wire 1 > DAdata[13]~input_o $end
$var wire 1 ? DAdata[14]~input_o $end
$var wire 1 @ DAdata[15]~input_o $end
$var wire 1 A DAdata[16]~input_o $end
$var wire 1 B DAdata[17]~input_o $end
$var wire 1 C DAdata[18]~input_o $end
$var wire 1 D DAdata[19]~input_o $end
$var wire 1 E DAdata[20]~input_o $end
$var wire 1 F DAdata[21]~input_o $end
$var wire 1 G DAdata[22]~input_o $end
$var wire 1 H DAdata[23]~input_o $end
$var wire 1 I c32~output_o $end
$var wire 1 J c64~output_o $end
$var wire 1 K int[0]~output_o $end
$var wire 1 L int[1]~output_o $end
$var wire 1 M int[2]~output_o $end
$var wire 1 N int[3]~output_o $end
$var wire 1 O int[4]~output_o $end
$var wire 1 P CPUCLK~input_o $end
$var wire 1 Q CLKD1|inst~0_combout $end
$var wire 1 R CLKD1|inst~feeder_combout $end
$var wire 1 S CLKD1|inst~q $end
$var wire 1 T CLKD1|inst1~0_combout $end
$var wire 1 U CLKD1|inst1~feeder_combout $end
$var wire 1 V CLKD1|inst1~q $end
$var wire 1 W CLKD1|inst2~0_combout $end
$var wire 1 X CLKD1|inst2~feeder_combout $end
$var wire 1 Y CLKD1|inst2~q $end
$var wire 1 Z CLKD1|inst3~0_combout $end
$var wire 1 [ CLKD1|inst3~feeder_combout $end
$var wire 1 \ CLKD1|inst3~q $end
$var wire 1 ] CLKD1|inst4~0_combout $end
$var wire 1 ^ CLKD1|inst4~feeder_combout $end
$var wire 1 _ CLKD1|inst4~q $end
$var wire 1 ` CLKD1|inst4~clkctrl_outclk $end
$var wire 1 a CLKD2|inst~0_combout $end
$var wire 1 b CLKD2|inst~feeder_combout $end
$var wire 1 c CLKD2|inst~q $end
$var wire 1 d CLKD2|inst1~0_combout $end
$var wire 1 e CLKD2|inst1~feeder_combout $end
$var wire 1 f CLKD2|inst1~q $end
$var wire 1 g CLKD2|inst2~0_combout $end
$var wire 1 h CLKD2|inst2~q $end
$var wire 1 i CLKD2|inst3~0_combout $end
$var wire 1 j CLKD2|inst3~feeder_combout $end
$var wire 1 k CLKD2|inst3~q $end
$var wire 1 l CLKD2|inst4~0_combout $end
$var wire 1 m CLKD2|inst4~q $end
$var wire 1 n Add0~0_combout $end
$var wire 1 o Add0~1 $end
$var wire 1 p Add0~2_combout $end
$var wire 1 q Add0~3 $end
$var wire 1 r Add0~4_combout $end
$var wire 1 s Add0~5 $end
$var wire 1 t Add0~6_combout $end
$var wire 1 u i~1_combout $end
$var wire 1 v Equal0~2_combout $end
$var wire 1 w Add0~7 $end
$var wire 1 x Add0~8_combout $end
$var wire 1 y i~0_combout $end
$var wire 1 z Equal0~0_combout $end
$var wire 1 { Equal0~1_combout $end
$var wire 1 | int[0]~reg0_q $end
$var wire 1 } int[1]~reg0feeder_combout $end
$var wire 1 ~ int[1]~reg0_q $end
$var wire 1 !! int[2]~reg0feeder_combout $end
$var wire 1 "! int[2]~reg0_q $end
$var wire 1 #! int[3]~reg0feeder_combout $end
$var wire 1 $! int[3]~reg0_q $end
$var wire 1 %! int[4]~reg0feeder_combout $end
$var wire 1 &! int[4]~reg0_q $end
$var wire 1 '! i [4] $end
$var wire 1 (! i [3] $end
$var wire 1 )! i [2] $end
$var wire 1 *! i [1] $end
$var wire 1 +! i [0] $end
$upscope $end
$upscope $end
$enddefinitions $end
#0
$dumpvars
0!
b0 "
0#
0$
0)
0(
0'
0&
0%
x*
0+
1,
x-
1.
1/
10
01
02
03
04
05
06
07
08
09
0:
0;
0<
0=
0>
0?
0@
0A
0B
0C
0D
0E
0F
0G
0H
0I
0J
0K
0L
0M
0N
0O
0P
1Q
1R
0S
1T
1U
0V
1W
1X
0Y
1Z
1[
0\
1]
1^
0_
0`
1a
1b
0c
1d
1e
0f
1g
0h
1i
1j
0k
1l
0m
1n
0o
0p
1q
0r
0s
0t
0u
0v
1w
0x
0y
0z
1{
0|
0}
0~
0!!
0"!
0#!
0$!
0%!
0&!
0+!
0*!
0)!
0(!
0'!
$end
#10000
1!
1P
0*
1S
0Q
0R
1V
0T
0U
1Y
0W
0X
1\
0Z
0[
1_
1`
0]
1I
1#
0^
1+!
1c
1o
0n
0a
1p
0b
1f
0d
0e
1h
0g
1k
0i
0j
1m
0l
1J
1$
#20000
0!
0P
1*
#30000
1!
1P
0*
0S
1Q
1R
#40000
0!
0P
1*
#50000
1!
1P
0*
1S
0Q
0R
0V
1T
1U
#60000
0!
0P
1*
#70000
1!
1P
0*
0S
1Q
1R
#80000
0!
0P
1*
#90000
1!
1P
0*
1S
0Q
0R
1V
0T
0U
0Y
1W
1X
#100000
0!
0P
1*
#110000
1!
1P
0*
0S
1Q
1R
#120000
0!
0P
1*
#130000
1!
1P
0*
1S
0Q
0R
0V
1T
1U
#140000
0!
0P
1*
#150000
1!
1P
0*
0S
1Q
1R
#160000
0!
0P
1*
#170000
1!
1P
0*
1S
0Q
0R
1V
0T
0U
1Y
0W
0X
0\
1Z
1[
#180000
0!
0P
1*
#190000
1!
1P
0*
0S
1Q
1R
#200000
0!
0P
1*
#210000
1!
1P
0*
1S
0Q
0R
0V
1T
1U
#220000
0!
0P
1*
#230000
1!
1P
0*
0S
1Q
1R
#240000
0!
0P
1*
#250000
1!
1P
0*
1S
0Q
0R
1V
0T
0U
0Y
1W
1X
#260000
0!
0P
1*
#270000
1!
1P
0*
0S
1Q
1R
#280000
0!
0P
1*
#290000
1!
1P
0*
1S
0Q
0R
0V
1T
1U
#300000
0!
0P
1*
#310000
1!
1P
0*
0S
1Q
1R
#320000
0!
0P
1*
#330000
1!
1P
0*
1S
0Q
0R
1V
0T
0U
1Y
0W
0X
1\
0Z
0[
0_
0`
1]
0I
0#
1^
#340000
0!
0P
1*
#350000
1!
1P
0*
0S
1Q
1R
#360000
0!
0P
1*
#370000
1!
1P
0*
1S
0Q
0R
0V
1T
1U
#380000
0!
0P
1*
#390000
1!
1P
0*
0S
1Q
1R
#400000
0!
0P
1*
#410000
1!
1P
0*
1S
0Q
0R
1V
0T
0U
0Y
1W
1X
#420000
0!
0P
1*
#430000
1!
1P
0*
0S
1Q
1R
#440000
0!
0P
1*
#450000
1!
1P
0*
1S
0Q
0R
0V
1T
1U
#460000
0!
0P
1*
#470000
1!
1P
0*
0S
1Q
1R
#480000
0!
0P
1*
#490000
1!
1P
0*
1S
0Q
0R
1V
0T
0U
1Y
0W
0X
0\
1Z
1[
#500000
0!
0P
1*
#510000
1!
1P
0*
0S
1Q
1R
#520000
0!
0P
1*
#530000
1!
1P
0*
1S
0Q
0R
0V
1T
1U
#540000
0!
0P
1*
#550000
1!
1P
0*
0S
1Q
1R
#560000
0!
0P
1*
#570000
1!
1P
0*
1S
0Q
0R
1V
0T
0U
0Y
1W
1X
#580000
0!
0P
1*
#590000
1!
1P
0*
0S
1Q
1R
#600000
0!
0P
1*
#610000
1!
1P
0*
1S
0Q
0R
0V
1T
1U
#620000
0!
0P
1*
#630000
1!
1P
0*
0S
1Q
1R
#640000
0!
0P
1*
#650000
1!
1P
0*
1S
0Q
0R
1V
0T
0U
1Y
0W
0X
1\
0Z
0[
1_
1`
0]
1I
1#
0^
1*!
0+!
0c
1|
1}
1z
0q
0p
0o
1n
1a
1K
1)
1r
1q
1p
1b
0r
#660000
0!
0P
1*
#670000
1!
1P
0*
0S
1Q
1R
#680000
0!
0P
1*
#690000
1!
1P
0*
1S
0Q
0R
0V
1T
1U
#700000
0!
0P
1*
#710000
1!
1P
0*
0S
1Q
1R
#720000
0!
0P
1*
#730000
1!
1P
0*
1S
0Q
0R
1V
0T
0U
0Y
1W
1X
#740000
0!
0P
1*
#750000
1!
1P
0*
0S
1Q
1R
#760000
0!
0P
1*
#770000
1!
1P
0*
1S
0Q
0R
0V
1T
1U
#780000
0!
0P
1*
#790000
1!
1P
0*
0S
1Q
1R
#800000
0!
0P
1*
#810000
1!
1P
0*
1S
0Q
0R
1V
0T
0U
1Y
0W
0X
0\
1Z
1[
#820000
0!
0P
1*
#830000
1!
1P
0*
0S
1Q
1R
#840000
0!
0P
1*
#850000
1!
1P
0*
1S
0Q
0R
0V
1T
1U
#860000
0!
0P
1*
#870000
1!
1P
0*
0S
1Q
1R
#880000
0!
0P
1*
#890000
1!
1P
0*
1S
0Q
0R
1V
0T
0U
0Y
1W
1X
#900000
0!
0P
1*
#910000
1!
1P
0*
0S
1Q
1R
#920000
0!
0P
1*
#930000
1!
1P
0*
1S
0Q
0R
0V
1T
1U
#940000
0!
0P
1*
#950000
1!
1P
0*
0S
1Q
1R
#960000
0!
0P
1*
#970000
1!
1P
0*
1S
0Q
0R
1V
0T
0U
1Y
0W
0X
1\
0Z
0[
0_
0`
1]
0I
0#
1^
#980000
0!
0P
1*
#990000
1!
1P
0*
0S
1Q
1R
#1000000
0!
0P
1*
#1010000
1!
1P
0*
1S
0Q
0R
0V
1T
1U
#1020000
0!
0P
1*
#1030000
1!
1P
0*
0S
1Q
1R
#1040000
0!
0P
1*
#1050000
1!
1P
0*
1S
0Q
0R
1V
0T
0U
0Y
1W
1X
#1060000
0!
0P
1*
#1070000
1!
1P
0*
0S
1Q
1R
#1080000
0!
0P
1*
#1090000
1!
1P
0*
1S
0Q
0R
0V
1T
1U
#1100000
0!
0P
1*
#1110000
1!
1P
0*
0S
1Q
1R
#1120000
0!
0P
1*
#1130000
1!
1P
0*
1S
0Q
0R
1V
0T
0U
1Y
0W
0X
0\
1Z
1[
#1140000
0!
0P
1*
#1150000
1!
1P
0*
0S
1Q
1R
#1160000
0!
0P
1*
#1170000
1!
1P
0*
1S
0Q
0R
0V
1T
1U
#1180000
0!
0P
1*
#1190000
1!
1P
0*
0S
1Q
1R
#1200000
0!
0P
1*
#1210000
1!
1P
0*
1S
0Q
0R
1V
0T
0U
0Y
1W
1X
#1220000
0!
0P
1*
#1230000
1!
1P
0*
0S
1Q
1R
#1240000
0!
0P
1*
#1250000
1!
1P
0*
1S
0Q
0R
0V
1T
1U
#1260000
0!
0P
1*
#1270000
1!
1P
0*
0S
1Q
1R
#1280000
0!
0P
1*
#1290000
1!
1P
0*
1S
0Q
0R
1V
0T
0U
1Y
0W
0X
1\
0Z
0[
1_
1`
0]
1I
1#
0^
1+!
1c
1~
0|
1o
0n
0a
1L
0K
1(
0)
0q
0p
0b
1r
0f
1d
1e
#1300000
0!
0P
1*
#1310000
1!
1P
0*
0S
1Q
1R
#1320000
0!
0P
1*
#1330000
1!
1P
0*
1S
0Q
0R
0V
1T
1U
#1340000
0!
0P
1*
#1350000
1!
1P
0*
0S
1Q
1R
#1360000
0!
0P
1*
#1370000
1!
1P
0*
1S
0Q
0R
1V
0T
0U
0Y
1W
1X
#1380000
0!
0P
1*
#1390000
1!
1P
0*
0S
1Q
1R
#1400000
0!
0P
1*
#1410000
1!
1P
0*
1S
0Q
0R
0V
1T
1U
#1420000
0!
0P
1*
#1430000
1!
1P
0*
0S
1Q
1R
#1440000
0!
0P
1*
#1450000
1!
1P
0*
1S
0Q
0R
1V
0T
0U
1Y
0W
0X
0\
1Z
1[
#1460000
0!
0P
1*
#1470000
1!
1P
0*
0S
1Q
1R
#1480000
0!
0P
1*
#1490000
1!
1P
0*
1S
0Q
0R
0V
1T
1U
#1500000
0!
0P
1*
#1510000
1!
1P
0*
0S
1Q
1R
#1520000
0!
0P
1*
#1530000
1!
1P
0*
1S
0Q
0R
1V
0T
0U
0Y
1W
1X
#1540000
0!
0P
1*
#1550000
1!
1P
0*
0S
1Q
1R
#1560000
0!
0P
1*
#1570000
1!
1P
0*
1S
0Q
0R
0V
1T
1U
#1580000
0!
0P
1*
#1590000
1!
1P
0*
0S
1Q
1R
#1600000
0!
0P
1*
#1610000
1!
1P
0*
1S
0Q
0R
1V
0T
0U
1Y
0W
0X
1\
0Z
0[
0_
0`
1]
0I
0#
1^
#1620000
0!
0P
1*
#1630000
1!
1P
0*
0S
1Q
1R
#1640000
0!
0P
1*
#1650000
1!
1P
0*
1S
0Q
0R
0V
1T
1U
#1660000
0!
0P
1*
#1670000
1!
1P
0*
0S
1Q
1R
#1680000
0!
0P
1*
#1690000
1!
1P
0*
1S
0Q
0R
1V
0T
0U
0Y
1W
1X
#1700000
0!
0P
1*
#1710000
1!
1P
0*
0S
1Q
1R
#1720000
0!
0P
1*
#1730000
1!
1P
0*
1S
0Q
0R
0V
1T
1U
#1740000
0!
0P
1*
#1750000
1!
1P
0*
0S
1Q
1R
#1760000
0!
0P
1*
#1770000
1!
1P
0*
1S
0Q
0R
1V
0T
0U
1Y
0W
0X
0\
1Z
1[
#1780000
0!
0P
1*
#1790000
1!
1P
0*
0S
1Q
1R
#1800000
0!
0P
1*
#1810000
1!
1P
0*
1S
0Q
0R
0V
1T
1U
#1820000
0!
0P
1*
#1830000
1!
1P
0*
0S
1Q
1R
#1840000
0!
0P
1*
#1850000
1!
1P
0*
1S
0Q
0R
1V
0T
0U
0Y
1W
1X
#1860000
0!
0P
1*
#1870000
1!
1P
0*
0S
1Q
1R
#1880000
0!
0P
1*
#1890000
1!
1P
0*
1S
0Q
0R
0V
1T
1U
#1900000
0!
0P
1*
#1910000
1!
1P
0*
0S
1Q
1R
#1920000
0!
0P
1*
#1930000
1!
1P
0*
1S
0Q
0R
1V
0T
0U
1Y
0W
0X
1\
0Z
0[
1_
1`
0]
1I
1#
0^
1)!
0*!
0+!
0c
1|
1!!
1s
0r
0}
0z
1q
1p
0o
1n
1a
1K
1)
1t
0s
1r
0p
1b
1u
0t
0u
#1940000
0!
0P
1*
#1950000
1!
1P
0*
0S
1Q
1R
#1960000
0!
0P
1*
#1970000
1!
1P
0*
1S
0Q
0R
0V
1T
1U
#1980000
0!
0P
1*
#1990000
1!
1P
0*
0S
1Q
1R
#2000000
0!
0P
1*
#2010000
1!
1P
0*
1S
0Q
0R
1V
0T
0U
0Y
1W
1X
#2020000
0!
0P
1*
#2030000
1!
1P
0*
0S
1Q
1R
#2040000
0!
0P
1*
#2050000
1!
1P
0*
1S
0Q
0R
0V
1T
1U
#2060000
0!
0P
1*
#2070000
1!
1P
0*
0S
1Q
1R
#2080000
0!
0P
1*
#2090000
1!
1P
0*
1S
0Q
0R
1V
0T
0U
1Y
0W
0X
0\
1Z
1[
#2100000
0!
0P
1*
#2110000
1!
1P
0*
0S
1Q
1R
#2120000
0!
0P
1*
#2130000
1!
1P
0*
1S
0Q
0R
0V
1T
1U
#2140000
0!
0P
1*
#2150000
1!
1P
0*
0S
1Q
1R
#2160000
0!
0P
1*
#2170000
1!
1P
0*
1S
0Q
0R
1V
0T
0U
0Y
1W
1X
#2180000
0!
0P
1*
#2190000
1!
1P
0*
0S
1Q
1R
#2200000
0!
0P
1*
#2210000
1!
1P
0*
1S
0Q
0R
0V
1T
1U
#2220000
0!
0P
1*
#2230000
1!
1P
0*
0S
1Q
1R
#2240000
0!
0P
1*
#2250000
1!
1P
0*
1S
0Q
0R
1V
0T
0U
1Y
0W
0X
1\
0Z
0[
0_
0`
1]
0I
0#
1^
#2260000
0!
0P
1*
#2270000
1!
1P
0*
0S
1Q
1R
#2280000
0!
0P
1*
#2290000
1!
1P
0*
1S
0Q
0R
0V
1T
1U
#2300000
0!
0P
1*
#2310000
1!
1P
0*
0S
1Q
1R
#2320000
0!
0P
1*
#2330000
1!
1P
0*
1S
0Q
0R
1V
0T
0U
0Y
1W
1X
#2340000
0!
0P
1*
#2350000
1!
1P
0*
0S
1Q
1R
#2360000
0!
0P
1*
#2370000
1!
1P
0*
1S
0Q
0R
0V
1T
1U
#2380000
0!
0P
1*
#2390000
1!
1P
0*
0S
1Q
1R
#2400000
0!
0P
1*
#2410000
1!
1P
0*
1S
0Q
0R
1V
0T
0U
1Y
0W
0X
0\
1Z
1[
#2420000
0!
0P
1*
#2430000
1!
1P
0*
0S
1Q
1R
#2440000
0!
0P
1*
#2450000
1!
1P
0*
1S
0Q
0R
0V
1T
1U
#2460000
0!
0P
1*
#2470000
1!
1P
0*
0S
1Q
1R
#2480000
0!
0P
1*
#2490000
1!
1P
0*
1S
0Q
0R
1V
0T
0U
0Y
1W
1X
#2500000
0!
0P
1*
#2510000
1!
1P
0*
0S
1Q
1R
#2520000
0!
0P
1*
#2530000
1!
1P
0*
1S
0Q
0R
0V
1T
1U
#2540000
0!
0P
1*
#2550000
1!
1P
0*
0S
1Q
1R
#2560000
0!
0P
1*
#2570000
1!
1P
0*
1S
0Q
0R
1V
0T
0U
1Y
0W
0X
1\
0Z
0[
1_
1`
0]
1I
1#
0^
1+!
1c
1"!
0~
0|
1o
0n
0a
1M
0L
0K
1'
0(
0)
1p
0b
1f
0d
0e
0h
1g
#2580000
0!
0P
1*
#2590000
1!
1P
0*
0S
1Q
1R
#2600000
0!
0P
1*
#2610000
1!
1P
0*
1S
0Q
0R
0V
1T
1U
#2620000
0!
0P
1*
#2630000
1!
1P
0*
0S
1Q
1R
#2640000
0!
0P
1*
#2650000
1!
1P
0*
1S
0Q
0R
1V
0T
0U
0Y
1W
1X
#2660000
0!
0P
1*
#2670000
1!
1P
0*
0S
1Q
1R
#2680000
0!
0P
1*
#2690000
1!
1P
0*
1S
0Q
0R
0V
1T
1U
#2700000
0!
0P
1*
#2710000
1!
1P
0*
0S
1Q
1R
#2720000
0!
0P
1*
#2730000
1!
1P
0*
1S
0Q
0R
1V
0T
0U
1Y
0W
0X
0\
1Z
1[
#2740000
0!
0P
1*
#2750000
1!
1P
0*
0S
1Q
1R
#2760000
0!
0P
1*
#2770000
1!
1P
0*
1S
0Q
0R
0V
1T
1U
#2780000
0!
0P
1*
#2790000
1!
1P
0*
0S
1Q
1R
#2800000
0!
0P
1*
#2810000
1!
1P
0*
1S
0Q
0R
1V
0T
0U
0Y
1W
1X
#2820000
0!
0P
1*
#2830000
1!
1P
0*
0S
1Q
1R
#2840000
0!
0P
1*
#2850000
1!
1P
0*
1S
0Q
0R
0V
1T
1U
#2860000
0!
0P
1*
#2870000
1!
1P
0*
0S
1Q
1R
#2880000
0!
0P
1*
#2890000
1!
1P
0*
1S
0Q
0R
1V
0T
0U
1Y
0W
0X
1\
0Z
0[
0_
0`
1]
0I
0#
1^
#2900000
0!
0P
1*
#2910000
1!
1P
0*
0S
1Q
1R
#2920000
0!
0P
1*
#2930000
1!
1P
0*
1S
0Q
0R
0V
1T
1U
#2940000
0!
0P
1*
#2950000
1!
1P
0*
0S
1Q
1R
#2960000
0!
0P
1*
#2970000
1!
1P
0*
1S
0Q
0R
1V
0T
0U
0Y
1W
1X
#2980000
0!
0P
1*
#2990000
1!
1P
0*
0S
1Q
1R
#3000000
0!
0P
1*
#3010000
1!
1P
0*
1S
0Q
0R
0V
1T
1U
#3020000
0!
0P
1*
#3030000
1!
1P
0*
0S
1Q
1R
#3040000
0!
0P
1*
#3050000
1!
1P
0*
1S
0Q
0R
1V
0T
0U
1Y
0W
0X
0\
1Z
1[
#3060000
0!
0P
1*
#3070000
1!
1P
0*
0S
1Q
1R
#3080000
0!
0P
1*
#3090000
1!
1P
0*
1S
0Q
0R
0V
1T
1U
#3100000
0!
0P
1*
#3110000
1!
1P
0*
0S
1Q
1R
#3120000
0!
0P
1*
#3130000
1!
1P
0*
1S
0Q
0R
1V
0T
0U
0Y
1W
1X
#3140000
0!
0P
1*
#3150000
1!
1P
0*
0S
1Q
1R
#3160000
0!
0P
1*
#3170000
1!
1P
0*
1S
0Q
0R
0V
1T
1U
#3180000
0!
0P
1*
#3190000
1!
1P
0*
0S
1Q
1R
#3200000
0!
0P
1*
#3210000
1!
1P
0*
1S
0Q
0R
1V
0T
0U
1Y
0W
0X
1\
0Z
0[
1_
1`
0]
1I
1#
0^
1*!
0+!
0c
1|
1}
1z
0q
0p
0o
1n
1a
1K
1)
1s
0r
1q
1p
1b
1t
0s
1r
1u
0t
0u
#3220000
0!
0P
1*
#3230000
1!
1P
0*
0S
1Q
1R
#3240000
0!
0P
1*
#3250000
1!
1P
0*
1S
0Q
0R
0V
1T
1U
#3260000
0!
0P
1*
#3270000
1!
1P
0*
0S
1Q
1R
#3280000
0!
0P
1*
#3290000
1!
1P
0*
1S
0Q
0R
1V
0T
0U
0Y
1W
1X
#3300000
0!
0P
1*
#3310000
1!
1P
0*
0S
1Q
1R
#3320000
0!
0P
1*
#3330000
1!
1P
0*
1S
0Q
0R
0V
1T
1U
#3340000
0!
0P
1*
#3350000
1!
1P
0*
0S
1Q
1R
#3360000
0!
0P
1*
#3370000
1!
1P
0*
1S
0Q
0R
1V
0T
0U
1Y
0W
0X
0\
1Z
1[
#3380000
0!
0P
1*
#3390000
1!
1P
0*
0S
1Q
1R
#3400000
0!
0P
1*
#3410000
1!
1P
0*
1S
0Q
0R
0V
1T
1U
#3420000
0!
0P
1*
#3430000
1!
1P
0*
0S
1Q
1R
#3440000
0!
0P
1*
#3450000
1!
1P
0*
1S
0Q
0R
1V
0T
0U
0Y
1W
1X
#3460000
0!
0P
1*
#3470000
1!
1P
0*
0S
1Q
1R
#3480000
0!
0P
1*
#3490000
1!
1P
0*
1S
0Q
0R
0V
1T
1U
#3500000
0!
0P
1*
#3510000
1!
1P
0*
0S
1Q
1R
#3520000
0!
0P
1*
#3530000
1!
1P
0*
1S
0Q
0R
1V
0T
0U
1Y
0W
0X
1\
0Z
0[
0_
0`
1]
0I
0#
1^
#3540000
0!
0P
1*
#3550000
1!
1P
0*
0S
1Q
1R
#3560000
0!
0P
1*
#3570000
1!
1P
0*
1S
0Q
0R
0V
1T
1U
#3580000
0!
0P
1*
#3590000
1!
1P
0*
0S
1Q
1R
#3600000
0!
0P
1*
#3610000
1!
1P
0*
1S
0Q
0R
1V
0T
0U
0Y
1W
1X
#3620000
0!
0P
1*
#3630000
1!
1P
0*
0S
1Q
1R
#3640000
0!
0P
1*
#3650000
1!
1P
0*
1S
0Q
0R
0V
1T
1U
#3660000
0!
0P
1*
#3670000
1!
1P
0*
0S
1Q
1R
#3680000
0!
0P
1*
#3690000
1!
1P
0*
1S
0Q
0R
1V
0T
0U
1Y
0W
0X
0\
1Z
1[
#3700000
0!
0P
1*
#3710000
1!
1P
0*
0S
1Q
1R
#3720000
0!
0P
1*
#3730000
1!
1P
0*
1S
0Q
0R
0V
1T
1U
#3740000
0!
0P
1*
#3750000
1!
1P
0*
0S
1Q
1R
#3760000
0!
0P
1*
#3770000
1!
1P
0*
1S
0Q
0R
1V
0T
0U
0Y
1W
1X
#3780000
0!
0P
1*
#3790000
1!
1P
0*
0S
1Q
1R
#3800000
0!
0P
1*
#3810000
1!
1P
0*
1S
0Q
0R
0V
1T
1U
#3820000
0!
0P
1*
#3830000
1!
1P
0*
0S
1Q
1R
#3840000
0!
0P
1*
#3850000
1!
1P
0*
1S
0Q
0R
1V
0T
0U
1Y
0W
0X
1\
0Z
0[
1_
1`
0]
1I
1#
0^
1+!
1c
1~
0|
1v
1o
0n
0a
1L
0K
1(
0)
0q
0p
0b
1s
0r
1t
1u
0f
1d
1e
#3860000
0!
0P
1*
#3870000
1!
1P
0*
0S
1Q
1R
#3880000
0!
0P
1*
#3890000
1!
1P
0*
1S
0Q
0R
0V
1T
1U
#3900000
0!
0P
1*
#3910000
1!
1P
0*
0S
1Q
1R
#3920000
0!
0P
1*
#3930000
1!
1P
0*
1S
0Q
0R
1V
0T
0U
0Y
1W
1X
#3940000
0!
0P
1*
#3950000
1!
1P
0*
0S
1Q
1R
#3960000
0!
0P
1*
#3970000
1!
1P
0*
1S
0Q
0R
0V
1T
1U
#3980000
0!
0P
1*
#3990000
1!
1P
0*
0S
1Q
1R
#4000000
0!
0P
1*
#4010000
1!
1P
0*
1S
0Q
0R
1V
0T
0U
1Y
0W
0X
0\
1Z
1[
#4020000
0!
0P
1*
#4030000
1!
1P
0*
0S
1Q
1R
#4040000
0!
0P
1*
#4050000
1!
1P
0*
1S
0Q
0R
0V
1T
1U
#4060000
0!
0P
1*
#4070000
1!
1P
0*
0S
1Q
1R
#4080000
0!
0P
1*
#4090000
1!
1P
0*
1S
0Q
0R
1V
0T
0U
0Y
1W
1X
#4100000
0!
0P
1*
#4110000
1!
1P
0*
0S
1Q
1R
#4120000
0!
0P
1*
#4130000
1!
1P
0*
1S
0Q
0R
0V
1T
1U
#4140000
0!
0P
1*
#4150000
1!
1P
0*
0S
1Q
1R
#4160000
0!
0P
1*
#4170000
1!
1P
0*
1S
0Q
0R
1V
0T
0U
1Y
0W
0X
1\
0Z
0[
0_
0`
1]
0I
0#
1^
#4180000
0!
0P
1*
#4190000
1!
1P
0*
0S
1Q
1R
#4200000
0!
0P
1*
#4210000
1!
1P
0*
1S
0Q
0R
0V
1T
1U
#4220000
0!
0P
1*
#4230000
1!
1P
0*
0S
1Q
1R
#4240000
0!
0P
1*
#4250000
1!
1P
0*
1S
0Q
0R
1V
0T
0U
0Y
1W
1X
#4260000
0!
0P
1*
#4270000
1!
1P
0*
0S
1Q
1R
#4280000
0!
0P
1*
#4290000
1!
1P
0*
1S
0Q
0R
0V
1T
1U
#4300000
0!
0P
1*
#4310000
1!
1P
0*
0S
1Q
1R
#4320000
0!
0P
1*
#4330000
1!
1P
0*
1S
0Q
0R
1V
0T
0U
1Y
0W
0X
0\
1Z
1[
#4340000
0!
0P
1*
#4350000
1!
1P
0*
0S
1Q
1R
#4360000
0!
0P
1*
#4370000
1!
1P
0*
1S
0Q
0R
0V
1T
1U
#4380000
0!
0P
1*
#4390000
1!
1P
0*
0S
1Q
1R
#4400000
0!
0P
1*
#4410000
1!
1P
0*
1S
0Q
0R
1V
0T
0U
0Y
1W
1X
#4420000
0!
0P
1*
#4430000
1!
1P
0*
0S
1Q
1R
#4440000
0!
0P
1*
#4450000
1!
1P
0*
1S
0Q
0R
0V
1T
1U
#4460000
0!
0P
1*
#4470000
1!
1P
0*
0S
1Q
1R
#4480000
0!
0P
1*
#4490000
1!
1P
0*
1S
0Q
0R
1V
0T
0U
1Y
0W
0X
1\
0Z
0[
1_
1`
0]
1I
1#
0^
1(!
0)!
0*!
0+!
0c
1|
1#!
0z
0v
0w
0t
0!!
0s
1r
0}
1q
1p
0o
1n
1a
1K
1)
0u
1x
1w
1t
0r
0p
1b
1y
0x
1u
0y
#4500000
0!
0P
1*
#4510000
1!
1P
0*
0S
1Q
1R
#4520000
0!
0P
1*
#4530000
1!
1P
0*
1S
0Q
0R
0V
1T
1U
#4540000
0!
0P
1*
#4550000
1!
1P
0*
0S
1Q
1R
#4560000
0!
0P
1*
#4570000
1!
1P
0*
1S
0Q
0R
1V
0T
0U
0Y
1W
1X
#4580000
0!
0P
1*
#4590000
1!
1P
0*
0S
1Q
1R
#4600000
0!
0P
1*
#4610000
1!
1P
0*
1S
0Q
0R
0V
1T
1U
#4620000
0!
0P
1*
#4630000
1!
1P
0*
0S
1Q
1R
#4640000
0!
0P
1*
#4650000
1!
1P
0*
1S
0Q
0R
1V
0T
0U
1Y
0W
0X
0\
1Z
1[
#4660000
0!
0P
1*
#4670000
1!
1P
0*
0S
1Q
1R
#4680000
0!
0P
1*
#4690000
1!
1P
0*
1S
0Q
0R
0V
1T
1U
#4700000
0!
0P
1*
#4710000
1!
1P
0*
0S
1Q
1R
#4720000
0!
0P
1*
#4730000
1!
1P
0*
1S
0Q
0R
1V
0T
0U
0Y
1W
1X
#4740000
0!
0P
1*
#4750000
1!
1P
0*
0S
1Q
1R
#4760000
0!
0P
1*
#4770000
1!
1P
0*
1S
0Q
0R
0V
1T
1U
#4780000
0!
0P
1*
#4790000
1!
1P
0*
0S
1Q
1R
#4800000
0!
0P
1*
#4810000
1!
1P
0*
1S
0Q
0R
1V
0T
0U
1Y
0W
0X
1\
0Z
0[
0_
0`
1]
0I
0#
1^
#4820000
0!
0P
1*
#4830000
1!
1P
0*
0S
1Q
1R
#4840000
0!
0P
1*
#4850000
1!
1P
0*
1S
0Q
0R
0V
1T
1U
#4860000
0!
0P
1*
#4870000
1!
1P
0*
0S
1Q
1R
#4880000
0!
0P
1*
#4890000
1!
1P
0*
1S
0Q
0R
1V
0T
0U
0Y
1W
1X
#4900000
0!
0P
1*
#4910000
1!
1P
0*
0S
1Q
1R
#4920000
0!
0P
1*
#4930000
1!
1P
0*
1S
0Q
0R
0V
1T
1U
#4940000
0!
0P
1*
#4950000
1!
1P
0*
0S
1Q
1R
#4960000
0!
0P
1*
#4970000
1!
1P
0*
1S
0Q
0R
1V
0T
0U
1Y
0W
0X
0\
1Z
1[
