FPGAProgram/simulation/qsim/CODECSystem.msim.vcd
$comment
	File created using the following command:
		vcd file CODECSystem.msim.vcd -direction
$end
$date
	Wed Aug 26 19:54:55 2015
$end
$version
	ModelSim Version 10.1e
$end
$timescale
	1ps
$end
$scope module CODECSystem_vlg_vec_tst $end
$var reg 1 ! CPUCLK $end
$var reg 24 " DACDAT [23:0] $end
$var wire 1 # c32 $end
$var wire 1 $ c64 $end
$var wire 1 % int [4] $end
$var wire 1 & int [3] $end
$var wire 1 ' int [2] $end
$var wire 1 ( int [1] $end
$var wire 1 ) int [0] $end
$var wire 1 * sampler $end
$scope module i1 $end
$var wire 1 + gnd $end
$var wire 1 , vcc $end
$var wire 1 - unknown $end
$var tri1 1 . devclrn $end
$var tri1 1 / devpor $end
$var tri1 1 0 devoe $end
$var wire 1 1 DACDAT[0]~input_o $end
$var wire 1 2 DACDAT[1]~input_o $end
$var wire 1 3 DACDAT[2]~input_o $end
$var wire 1 4 DACDAT[3]~input_o $end
$var wire 1 5 DACDAT[4]~input_o $end
$var wire 1 6 DACDAT[5]~input_o $end
$var wire 1 7 DACDAT[6]~input_o $end
$var wire 1 8 DACDAT[7]~input_o $end
$var wire 1 9 DACDAT[8]~input_o $end
$var wire 1 : DACDAT[9]~input_o $end
$var wire 1 ; DACDAT[10]~input_o $end
$var wire 1 < DACDAT[11]~input_o $end
$var wire 1 = DACDAT[12]~input_o $end
$var wire 1 > DACDAT[13]~input_o $end
$var wire 1 ? DACDAT[14]~input_o $end
$var wire 1 @ DACDAT[15]~input_o $end
$var wire 1 A DACDAT[16]~input_o $end
$var wire 1 B DACDAT[17]~input_o $end
$var wire 1 C DACDAT[18]~input_o $end
$var wire 1 D DACDAT[19]~input_o $end
$var wire 1 E DACDAT[20]~input_o $end
$var wire 1 F DACDAT[21]~input_o $end
$var wire 1 G DACDAT[22]~input_o $end
$var wire 1 H DACDAT[23]~input_o $end
$var wire 1 I c32~output_o $end
$var wire 1 J c64~output_o $end
$var wire 1 K int[0]~output_o $end
$var wire 1 L int[1]~output_o $end
$var wire 1 M int[2]~output_o $end
$var wire 1 N int[3]~output_o $end
$var wire 1 O int[4]~output_o $end
$var wire 1 P CPUCLK~input_o $end
$var wire 1 Q CPUCLK~inputclkctrl_outclk $end
$var wire 1 R CLKD1|inst~0_combout $end
$var wire 1 S CLKD1|inst~feeder_combout $end
$var wire 1 T CLKD1|inst~q $end
$var wire 1 U CLKD1|inst1~0_combout $end
$var wire 1 V CLKD1|inst1~feeder_combout $end
$var wire 1 W CLKD1|inst1~q $end
$var wire 1 X CLKD1|inst2~0_combout $end
$var wire 1 Y CLKD1|inst2~q $end
$var wire 1 Z CLKD1|inst3~0_combout $end
$var wire 1 [ CLKD1|inst3~q $end
$var wire 1 \ CLKD1|inst4~0_combout $end
$var wire 1 ] CLKD1|inst4~q $end
$var wire 1 ^ CLKD2|inst~0_combout $end
$var wire 1 _ CLKD2|inst~feeder_combout $end
$var wire 1 ` CLKD2|inst~q $end
$var wire 1 a CLKD2|inst1~0_combout $end
$var wire 1 b CLKD2|inst1~feeder_combout $end
$var wire 1 c CLKD2|inst1~q $end
$var wire 1 d CLKD2|inst2~0_combout $end
$var wire 1 e CLKD2|inst2~feeder_combout $end
$var wire 1 f CLKD2|inst2~q $end
$var wire 1 g CLKD2|inst3~0_combout $end
$var wire 1 h CLKD2|inst3~feeder_combout $end
$var wire 1 i CLKD2|inst3~q $end
$var wire 1 j CLKD2|inst4~0_combout $end
$var wire 1 k CLKD2|inst4~feeder_combout $end
$var wire 1 l CLKD2|inst4~q $end
$var wire 1 m CLKD2|inst5~0_combout $end
$var wire 1 n CLKD2|inst5~q $end
$var wire 1 o int[0]~5_combout $end
$var wire 1 p Add0~0_combout $end
$var wire 1 q Add0~1 $end
$var wire 1 r Add0~2_combout $end
$var wire 1 s Add0~3 $end
$var wire 1 t Add0~4_combout $end
$var wire 1 u Add0~5 $end
$var wire 1 v Add0~6_combout $end
$upscope $end
$upscope $end
$enddefinitions $end
#0
$dumpvars
0!
b0 "
0#
0$
x)
x(
x'
x&
x%
x*
0+
1,
x-
1.
1/
10
01
02
03
04
05
06
07
08
09
0:
0;
0<
0=
0>
0?
0@
0A
0B
0C
0D
0E
0F
0G
0H
0I
0J
xK
xL
xM
xN
xO
0P
0Q
1R
1S
0T
1U
1V
0W
1X
0Y
1Z
0[
1\
0]
1^
1_
0`
1a
1b
0c
1d
1e
0f
1g
1h
0i
1j
1k
0l
1m
0n
xo
xp
xq
xr
xs
xt
xu
xv
$end
#10000
1!
1P
1Q
0*
1`
1T
0^
0R
0_
0S
1c
1W
0a
0U
0b
0V
1f
1Y
0d
0X
0e
1i
1[
0g
0Z
0h
1l
1]
0j
0\
1I
1#
0k
1n
0m
1J
1$
#20000
0!
0P
0Q
1*
#30000
1!
1P
1Q
0*
0`
0T
1^
1R
1_
1S
#40000
0!
0P
0Q
1*
#50000
1!
1P
1Q
0*
1`
1T
0^
0R
0_
0S
0c
0W
1a
1U
1b
1V
#60000
0!
0P
0Q
1*
#70000
1!
1P
1Q
0*
0`
0T
1^
1R
1_
1S
#80000
0!
0P
0Q
1*
#90000
1!
1P
1Q
0*
1`
1T
0^
0R
0_
0S
1c
1W
0a
0U
0b
0V
0f
0Y
1d
1X
1e
#100000
0!
0P
0Q
1*
#110000
1!
1P
1Q
0*
0`
0T
1^
1R
1_
1S
#120000
0!
0P
0Q
1*
#130000
1!
1P
1Q
0*
1`
1T
0^
0R
0_
0S
0c
0W
1a
1U
1b
1V
#140000
0!
0P
0Q
1*
#150000
1!
1P
1Q
0*
0`
0T
1^
1R
1_
1S
#160000
0!
0P
0Q
1*
#170000
1!
1P
1Q
0*
1`
1T
0^
0R
0_
0S
1c
1W
0a
0U
0b
0V
1f
1Y
0d
0X
0e
0i
0[
1g
1Z
1h
#180000
0!
0P
0Q
1*
#190000
1!
1P
1Q
0*
0`
0T
1^
1R
1_
1S
#200000
0!
0P
0Q
1*
#210000
1!
1P
1Q
0*
1`
1T
0^
0R
0_
0S
0c
0W
1a
1U
1b
1V
#220000
0!
0P
0Q
1*
#230000
1!
1P
1Q
0*
0`
0T
1^
1R
1_
1S
#240000
0!
0P
0Q
1*
#250000
1!
1P
1Q
0*
1`
1T
0^
0R
0_
0S
1c
1W
0a
0U
0b
0V
0f
0Y
1d
1X
1e
#260000
0!
0P
0Q
1*
#270000
1!
1P
1Q
0*
0`
0T
1^
1R
1_
1S
#280000
0!
0P
0Q
1*
#290000
1!
1P
1Q
0*
1`
1T
0^
0R
0_
0S
0c
0W
1a
1U
1b
1V
#300000
0!
0P
0Q
1*
#310000
1!
1P
1Q
0*
0`
0T
1^
1R
1_
1S
#320000
0!
0P
0Q
1*
#330000
1!
1P
1Q
0*
1`
1T
0^
0R
0_
0S
1c
1W
0a
0U
0b
0V
1f
1Y
0d
0X
0e
1i
1[
0g
0Z
0h
0l
0]
1j
1\
0I
0#
1k
#340000
0!
0P
0Q
1*
#350000
1!
1P
1Q
0*
0`
0T
1^
1R
1_
1S
#360000
0!
0P
0Q
1*
#370000
1!
1P
1Q
0*
1`
1T
0^
0R
0_
0S
0c
0W
1a
1U
1b
1V
#380000
0!
0P
0Q
1*
#390000
1!
1P
1Q
0*
0`
0T
1^
1R
1_
1S
#400000
0!
0P
0Q
1*
#410000
1!
1P
1Q
0*
1`
1T
0^
0R
0_
0S
1c
1W
0a
0U
0b
0V
0f
0Y
1d
1X
1e
#420000
0!
0P
0Q
1*
#430000
1!
1P
1Q
0*
0`
0T
1^
1R
1_
1S
#440000
0!
0P
0Q
1*
#450000
1!
1P
1Q
0*
1`
1T
0^
0R
0_
0S
0c
0W
1a
1U
1b
1V
#460000
0!
0P
0Q
1*
#470000
1!
1P
1Q
0*
0`
0T
1^
1R
1_
1S
#480000
0!
0P
0Q
1*
#490000
1!
1P
1Q
0*
1`
1T
0^
0R
0_
0S
1c
1W
0a
0U
0b
0V
1f
1Y
0d
0X
0e
0i
0[
1g
1Z
1h
#500000
0!
0P
0Q
1*
#510000
1!
1P
1Q
0*
0`
0T
1^
1R
1_
1S
#520000
0!
0P
0Q
1*
#530000
1!
1P
1Q
0*
1`
1T
0^
0R
0_
0S
0c
0W
1a
1U
1b
1V
#540000
0!
0P
0Q
1*
#550000
1!
1P
1Q
0*
0`
0T
1^
1R
1_
1S
#560000
0!
0P
0Q
1*
#570000
1!
1P
1Q
0*
1`
1T
0^
0R
0_
0S
1c
1W
0a
0U
0b
0V
0f
0Y
1d
1X
1e
#580000
0!
0P
0Q
1*
#590000
1!
1P
1Q
0*
0`
0T
1^
1R
1_
1S
#600000
0!
0P
0Q
1*
#610000
1!
1P
1Q
0*
1`
1T
0^
0R
0_
0S
0c
0W
1a
1U
1b
1V
#620000
0!
0P
0Q
1*
#630000
1!
1P
1Q
0*
0`
0T
1^
1R
1_
1S
#640000
0!
0P
0Q
1*
#650000
1!
1P
1Q
0*
1`
1T
0^
0R
0_
0S
1c
1W
0a
0U
0b
0V
1f
1Y
0d
0X
0e
1i
1[
0g
0Z
0h
1l
1]
0j
0\
1I
1#
0k
0n
1m
0J
0$
#660000
0!
0P
0Q
1*
#670000
1!
1P
1Q
0*
0`
0T
1^
1R
1_
1S
#680000
0!
0P
0Q
1*
#690000
1!
1P
1Q
0*
1`
1T
0^
0R
0_
0S
0c
0W
1a
1U
1b
1V
#700000
0!
0P
0Q
1*
#710000
1!
1P
1Q
0*
0`
0T
1^
1R
1_
1S
#720000
0!
0P
0Q
1*
#730000
1!
1P
1Q
0*
1`
1T
0^
0R
0_
0S
1c
1W
0a
0U
0b
0V
0f
0Y
1d
1X
1e
#740000
0!
0P
0Q
1*
#750000
1!
1P
1Q
0*
0`
0T
1^
1R
1_
1S
#760000
0!
0P
0Q
1*
#770000
1!
1P
1Q
0*
1`
1T
0^
0R
0_
0S
0c
0W
1a
1U
1b
1V
#780000
0!
0P
0Q
1*
#790000
1!
1P
1Q
0*
0`
0T
1^
1R
1_
1S
#800000
0!
0P
0Q
1*
#810000
1!
1P
1Q
0*
1`
1T
0^
0R
0_
0S
1c
1W
0a
0U
0b
0V
1f
1Y
0d
0X
0e
0i
0[
1g
1Z
1h
#820000
0!
0P
0Q
1*
#830000
1!
1P
1Q
0*
0`
0T
1^
1R
1_
1S
#840000
0!
0P
0Q
1*
#850000
1!
1P
1Q
0*
1`
1T
0^
0R
0_
0S
0c
0W
1a
1U
1b
1V
#860000
0!
0P
0Q
1*
#870000
1!
1P
1Q
0*
0`
0T
1^
1R
1_
1S
#880000
0!
0P
0Q
1*
#890000
1!
1P
1Q
0*
1`
1T
0^
0R
0_
0S
1c
1W
0a
0U
0b
0V
0f
0Y
1d
1X
1e
#900000
0!
0P
0Q
1*
#910000
1!
1P
1Q
0*
0`
0T
1^
1R
1_
1S
#920000
0!
0P
0Q
1*
#930000
1!
1P
1Q
0*
1`
1T
0^
0R
0_
0S
0c
0W
1a
1U
1b
1V
#940000
0!
0P
0Q
1*
#950000
1!
1P
1Q
0*
0`
0T
1^
1R
1_
1S
#960000
0!
0P
0Q
1*
#970000
1!
1P
1Q
0*
1`
1T
0^
0R
0_
0S
1c
1W
0a
0U
0b
0V
1f
1Y
0d
0X
0e
1i
1[
0g
0Z
0h
0l
0]
1j
1\
0I
0#
1k
#980000
0!
0P
0Q
1*
#990000
1!
1P
1Q
0*
0`
0T
1^
1R
1_
1S
#1000000
0!
0P
0Q
1*
#1010000
1!
1P
1Q
0*
1`
1T
0^
0R
0_
0S
0c
0W
1a
1U
1b
1V
#1020000
0!
0P
0Q
1*
#1030000
1!
1P
1Q
0*
0`
0T
1^
1R
1_
1S
#1040000
0!
0P
0Q
1*
#1050000
1!
1P
1Q
0*
1`
1T
0^
0R
0_
0S
1c
1W
0a
0U
0b
0V
0f
0Y
1d
1X
1e
#1060000
0!
0P
0Q
1*
#1070000
1!
1P
1Q
0*
0`
0T
1^
1R
1_
1S
#1080000
0!
0P
0Q
1*
#1090000
1!
1P
1Q
0*
1`
1T
0^
0R
0_
0S
0c
0W
1a
1U
1b
1V
#1100000
0!
0P
0Q
1*
#1110000
1!
1P
1Q
0*
0`
0T
1^
1R
1_
1S
#1120000
0!
0P
0Q
1*
#1130000
1!
1P
1Q
0*
1`
1T
0^
0R
0_
0S
1c
1W
0a
0U
0b
0V
1f
1Y
0d
0X
0e
0i
0[
1g
1Z
1h
#1140000
0!
0P
0Q
1*
#1150000
1!
1P
1Q
0*
0`
0T
1^
1R
1_
1S
#1160000
0!
0P
0Q
1*
#1170000
1!
1P
1Q
0*
1`
1T
0^
0R
0_
0S
0c
0W
1a
1U
1b
1V
#1180000
0!
0P
0Q
1*
#1190000
1!
1P
1Q
0*
0`
0T
1^
1R
1_
1S
#1200000
0!
0P
0Q
1*
#1210000
1!
1P
1Q
0*
1`
1T
0^
0R
0_
0S
1c
1W
0a
0U
0b
0V
0f
0Y
1d
1X
1e
#1220000
0!
0P
0Q
1*
#1230000
1!
1P
1Q
0*
0`
0T
1^
1R
1_
1S
#1240000
0!
0P
0Q
1*
#1250000
1!
1P
1Q
0*
1`
1T
0^
0R
0_
0S
0c
0W
1a
1U
1b
1V
#1260000
0!
0P
0Q
1*
#1270000
1!
1P
1Q
0*
0`
0T
1^
1R
1_
1S
#1280000
0!
0P
0Q
1*
#1290000
1!
1P
1Q
0*
1`
1T
0^
0R
0_
0S
1c
1W
0a
0U
0b
0V
1f
1Y
0d
0X
0e
1i
1[
0g
0Z
0h
1l
1]
0j
0\
1I
1#
0k
1n
0m
1J
1$
#1300000
0!
0P
0Q
1*
#1310000
1!
1P
1Q
0*
0`
0T
1^
1R
1_
1S
#1320000
0!
0P
0Q
1*
#1330000
1!
1P
1Q
0*
1`
1T
0^
0R
0_
0S
0c
0W
1a
1U
1b
1V
#1340000
0!
0P
0Q
1*
#1350000
1!
1P
1Q
0*
0`
0T
1^
1R
1_
1S
#1360000
0!
0P
0Q
1*
#1370000
1!
1P
1Q
0*
1`
1T
0^
0R
0_
0S
1c
1W
0a
0U
0b
0V
0f
0Y
1d
1X
1e
#1380000
0!
0P
0Q
1*
#1390000
1!
1P
1Q
0*
0`
0T
1^
1R
1_
1S
#1400000
0!
0P
0Q
1*
#1410000
1!
1P
1Q
0*
1`
1T
0^
0R
0_
0S
0c
0W
1a
1U
1b
1V
#1420000
0!
0P
0Q
1*
#1430000
1!
1P
1Q
0*
0`
0T
1^
1R
1_
1S
#1440000
0!
0P
0Q
1*
#1450000
1!
1P
1Q
0*
1`
1T
0^
0R
0_
0S
1c
1W
0a
0U
0b
0V
1f
1Y
0d
0X
0e
0i
0[
1g
1Z
1h
#1460000
0!
0P
0Q
1*
#1470000
1!
1P
1Q
0*
0`
0T
1^
1R
1_
1S
#1480000
0!
0P
0Q
1*
#1490000
1!
1P
1Q
0*
1`
1T
0^
0R
0_
0S
0c
0W
1a
1U
1b
1V
#1500000
0!
0P
0Q
1*
#1510000
1!
1P
1Q
0*
0`
0T
1^
1R
1_
1S
#1520000
0!
0P
0Q
1*
#1530000
1!
1P
1Q
0*
1`
1T
0^
0R
0_
0S
1c
1W
0a
0U
0b
0V
0f
0Y
1d
1X
1e
#1540000
0!
0P
0Q
1*
#1550000
1!
1P
1Q
0*
0`
0T
1^
1R
1_
1S
#1560000
0!
0P
0Q
1*
#1570000
1!
1P
1Q
0*
1`
1T
0^
0R
0_
0S
0c
0W
1a
1U
1b
1V
#1580000
0!
0P
0Q
1*
#1590000
1!
1P
1Q
0*
0`
0T
1^
1R
1_
1S
#1600000
0!
0P
0Q
1*
#1610000
1!
1P
1Q
0*
1`
1T
0^
0R
0_
0S
1c
1W
0a
0U
0b
0V
1f
1Y
0d
0X
0e
1i
1[
0g
0Z
0h
0l
0]
1j
1\
0I
0#
1k
#1620000
0!
0P
0Q
1*
#1630000
1!
1P
1Q
0*
0`
0T
1^
1R
1_
1S
#1640000
0!
0P
0Q
1*
#1650000
1!
1P
1Q
0*
1`
1T
0^
0R
0_
0S
0c
0W
1a
1U
1b
1V
#1660000
0!
0P
0Q
1*
#1670000
1!
1P
1Q
0*
0`
0T
1^
1R
1_
1S
#1680000
0!
0P
0Q
1*
#1690000
1!
1P
1Q
0*
1`
1T
0^
0R
0_
0S
1c
1W
0a
0U
0b
0V
0f
0Y
1d
1X
1e
#1700000
0!
0P
0Q
1*
#1710000
1!
1P
1Q
0*
0`
0T
1^
1R
1_
1S
#1720000
0!
0P
0Q
1*
#1730000
1!
1P
1Q
0*
1`
1T
0^
0R
0_
0S
0c
0W
1a
1U
1b
1V
#1740000
0!
0P
0Q
1*
#1750000
1!
1P
1Q
0*
0`
0T
1^
1R
1_
1S
#1760000
0!
0P
0Q
1*
#1770000
1!
1P
1Q
0*
1`
1T
0^
0R
0_
0S
1c
1W
0a
0U
0b
0V
1f
1Y
0d
0X
0e
0i
0[
1g
1Z
1h
#1780000
0!
0P
0Q
1*
#1790000
1!
1P
1Q
0*
0`
0T
1^
1R
1_
1S
#1800000
0!
0P
0Q
1*
#1810000
1!
1P
1Q
0*
1`
1T
0^
0R
0_
0S
0c
0W
1a
1U
1b
1V
#1820000
0!
0P
0Q
1*
#1830000
1!
1P
1Q
0*
0`
0T
1^
1R
1_
1S
#1840000
0!
0P
0Q
1*
#1850000
1!
1P
1Q
0*
1`
1T
0^
0R
0_
0S
1c
1W
0a
0U
0b
0V
0f
0Y
1d
1X
1e
#1860000
0!
0P
0Q
1*
#1870000
1!
1P
1Q
0*
0`
0T
1^
1R
1_
1S
#1880000
0!
0P
0Q
1*
#1890000
1!
1P
1Q
0*
1`
1T
0^
0R
0_
0S
0c
0W
1a
1U
1b
1V
#1900000
0!
0P
0Q
1*
#1910000
1!
1P
1Q
0*
0`
0T
1^
1R
1_
1S
#1920000
0!
0P
0Q
1*
#1930000
1!
1P
1Q
0*
1`
1T
0^
0R
0_
0S
1c
1W
0a
0U
0b
0V
1f
1Y
0d
0X
0e
1i
1[
0g
0Z
0h
1l
1]
0j
0\
1I
1#
0k
0n
1m
0J
0$
#1940000
0!
0P
0Q
1*
#1950000
1!
1P
1Q
0*
0`
0T
1^
1R
1_
1S
#1960000
0!
0P
0Q
1*
#1970000
1!
1P
1Q
0*
1`
1T
0^
0R
0_
0S
0c
0W
1a
1U
1b
1V
#1980000
0!
0P
0Q
1*
#1990000
1!
1P
1Q
0*
0`
0T
1^
1R
1_
1S
#2000000
0!
0P
0Q
1*
#2010000
1!
1P
1Q
0*
1`
1T
0^
0R
0_
0S
1c
1W
0a
0U
0b
0V
0f
0Y
1d
1X
1e
#2020000
0!
0P
0Q
1*
#2030000
1!
1P
1Q
0*
0`
0T
1^
1R
1_
1S
#2040000
0!
0P
0Q
1*
#2050000
1!
1P
1Q
0*
1`
1T
0^
0R
0_
0S
0c
0W
1a
1U
1b
1V
#2060000
0!
0P
0Q
1*
#2070000
1!
1P
1Q
0*
0`
0T
1^
1R
1_
1S
#2080000
0!
0P
0Q
1*
#2090000
1!
1P
1Q
0*
1`
1T
0^
0R
0_
0S
1c
1W
0a
0U
0b
0V
1f
1Y
0d
0X
0e
0i
0[
1g
1Z
1h
#2100000
0!
0P
0Q
1*
#2110000
1!
1P
1Q
0*
0`
0T
1^
1R
1_
1S
#2120000
0!
0P
0Q
1*
#2130000
1!
1P
1Q
0*
1`
1T
0^
0R
0_
0S
0c
0W
1a
1U
1b
1V
#2140000
0!
0P
0Q
1*
#2150000
1!
1P
1Q
0*
0`
0T
1^
1R
1_
1S
#2160000
0!
0P
0Q
1*
#2170000
1!
1P
1Q
0*
1`
1T
0^
0R
0_
0S
1c
1W
0a
0U
0b
0V
0f
0Y
1d
1X
1e
#2180000
0!
0P
0Q
1*
#2190000
1!
1P
1Q
0*
0`
0T
1^
1R
1_
1S
#2200000
0!
0P
0Q
1*
#2210000
1!
1P
1Q
0*
1`
1T
0^
0R
0_
0S
0c
0W
1a
1U
1b
1V
#2220000
0!
0P
0Q
1*
#2230000
1!
1P
1Q
0*
0`
0T
1^
1R
1_
1S
#2240000
0!
0P
0Q
1*
#2250000
1!
1P
1Q
0*
1`
1T
0^
0R
0_
0S
1c
1W
0a
0U
0b
0V
1f
1Y
0d
0X
0e
1i
1[
0g
0Z
0h
0l
0]
1j
1\
0I
0#
1k
#2260000
0!
0P
0Q
1*
#2270000
1!
1P
1Q
0*
0`
0T
1^
1R
1_
1S
#2280000
0!
0P
0Q
1*
#2290000
1!
1P
1Q
0*
1`
1T
0^
0R
0_
0S
0c
0W
1a
1U
1b
1V
#2300000
0!
0P
0Q
1*
#2310000
1!
1P
1Q
0*
0`
0T
1^
1R
1_
1S
#2320000
0!
0P
0Q
1*
#2330000
1!
1P
1Q
0*
1`
1T
0^
0R
0_
0S
1c
1W
0a
0U
0b
0V
0f
0Y
1d
1X
1e
#2340000
0!
0P
0Q
1*
#2350000
1!
1P
1Q
0*
0`
0T
1^
1R
1_
1S
#2360000
0!
0P
0Q
1*
#2370000
1!
1P
1Q
0*
1`
1T
0^
0R
0_
0S
0c
0W
1a
1U
1b
1V
#2380000
0!
0P
0Q
1*
#2390000
1!
1P
1Q
0*
0`
0T
1^
1R
1_
1S
#2400000
0!
0P
0Q
1*
#2410000
1!
1P
1Q
0*
1`
1T
0^
0R
0_
0S
1c
1W
0a
0U
0b
0V
1f
1Y
0d
0X
0e
0i
0[
1g
1Z
1h
#2420000
0!
0P
0Q
1*
#2430000
1!
1P
1Q
0*
0`
0T
1^
1R
1_
1S
#2440000
0!
0P
0Q
1*
#2450000
1!
1P
1Q
0*
1`
1T
0^
0R
0_
0S
0c
0W
1a
1U
1b
1V
#2460000
0!
0P
0Q
1*
#2470000
1!
1P
1Q
0*
0`
0T
1^
1R
1_
1S
#2480000
0!
0P
0Q
1*
#2490000
1!
1P
1Q
0*
1`
1T
0^
0R
0_
0S
1c
1W
0a
0U
0b
0V
0f
0Y
1d
1X
1e
#2500000
0!
0P
0Q
1*
#2510000
1!
1P
1Q
0*
0`
0T
1^
1R
1_
1S
#2520000
0!
0P
0Q
1*
#2530000
1!
1P
1Q
0*
1`
1T
0^
0R
0_
0S
0c
0W
1a
1U
1b
1V
#2540000
0!
0P
0Q
1*
#2550000
1!
1P
1Q
0*
0`
0T
1^
1R
1_
1S
#2560000
0!
0P
0Q
1*
#2570000
1!
1P
1Q
0*
1`
1T
0^
0R
0_
0S
1c
1W
0a
0U
0b
0V
1f
1Y
0d
0X
0e
1i
1[
0g
0Z
0h
1l
1]
0j
0\
1I
1#
0k
1n
0m
1J
1$
#2580000
0!
0P
0Q
1*
#2590000
1!
1P
1Q
0*
0`
0T
1^
1R
1_
1S
#2600000
0!
0P
0Q
1*
#2610000
1!
1P
1Q
0*
1`
1T
0^
0R
0_
0S
0c
0W
1a
1U
1b
1V
#2620000
0!
0P
0Q
1*
#2630000
1!
1P
1Q
0*
0`
0T
1^
1R
1_
1S
#2640000
0!
0P
0Q
1*
#2650000
1!
1P
1Q
0*
1`
1T
0^
0R
0_
0S
1c
1W
0a
0U
0b
0V
0f
0Y
1d
1X
1e
#2660000
0!
0P
0Q
1*
#2670000
1!
1P
1Q
0*
0`
0T
1^
1R
1_
1S
#2680000
0!
0P
0Q
1*
#2690000
1!
1P
1Q
0*
1`
1T
0^
0R
0_
0S
0c
0W
1a
1U
1b
1V
#2700000
0!
0P
0Q
1*
#2710000
1!
1P
1Q
0*
0`
0T
1^
1R
1_
1S
#2720000
0!
0P
0Q
1*
#2730000
1!
1P
1Q
0*
1`
1T
0^
0R
0_
0S
1c
1W
0a
0U
0b
0V
1f
1Y
0d
0X
0e
0i
0[
1g
1Z
1h
#2740000
0!
0P
0Q
1*
#2750000
1!
1P
1Q
0*
0`
0T
1^
1R
1_
1S
#2760000
0!
0P
0Q
1*
#2770000
1!
1P
1Q
0*
1`
1T
0^
0R
0_
0S
0c
0W
1a
1U
1b
1V
#2780000
0!
0P
0Q
1*
#2790000
1!
1P
1Q
0*
0`
0T
1^
1R
1_
1S
#2800000
0!
0P
0Q
1*
#2810000
1!
1P
1Q
0*
1`
1T
0^
0R
0_
0S
1c
1W
0a
0U
0b
0V
0f
0Y
1d
1X
1e
#2820000
0!
0P
0Q
1*
#2830000
1!
1P
1Q
0*
0`
0T
1^
1R
1_
1S
#2840000
0!
0P
0Q
1*
#2850000
1!
1P
1Q
0*
1`
1T
0^
0R
0_
0S
0c
0W
1a
1U
1b
1V
#2860000
0!
0P
0Q
1*
#2870000
1!
1P
1Q
0*
0`
0T
1^
1R
1_
1S
#2880000
0!
0P
0Q
1*
#2890000
1!
1P
1Q
0*
1`
1T
0^
0R
0_
0S
1c
1W
0a
0U
0b
0V
1f
1Y
0d
0X
0e
1i
1[
0g
0Z
0h
0l
0]
1j
1\
0I
0#
1k
#2900000
0!
0P
0Q
1*
#2910000
1!
1P
1Q
0*
0`
0T
1^
1R
1_
1S
#2920000
0!
0P
0Q
1*
#2930000
1!
1P
1Q
0*
1`
1T
0^
0R
0_
0S
0c
0W
1a
1U
1b
1V
#2940000
0!
0P
0Q
1*
#2950000
1!
1P
1Q
0*
0`
0T
1^
1R
1_
1S
#2960000
0!
0P
0Q
1*
#2970000
1!
1P
1Q
0*
1`
1T
0^
0R
0_
0S
1c
1W
0a
0U
0b
0V
0f
0Y
1d
1X
1e
#2980000
0!
0P
0Q
1*
#2990000
1!
1P
1Q
0*
0`
0T
1^
1R
1_
1S
#3000000
0!
0P
0Q
1*
#3010000
1!
1P
1Q
0*
1`
1T
0^
0R
0_
0S
0c
0W
1a
1U
1b
1V
#3020000
0!
0P
0Q
1*
#3030000
1!
1P
1Q
0*
0`
0T
1^
1R
1_
1S
#3040000
0!
0P
0Q
1*
#3050000
1!
1P
1Q
0*
1`
1T
0^
0R
0_
0S
1c
1W
0a
0U
0b
0V
1f
1Y
0d
0X
0e
0i
0[
1g
1Z
1h
#3060000
0!
0P
0Q
1*
#3070000
1!
1P
1Q
0*
0`
0T
1^
1R
1_
1S
#3080000
0!
0P
0Q
1*
#3090000
1!
1P
1Q
0*
1`
1T
0^
0R
0_
0S
0c
0W
1a
1U
1b
1V
#3100000
0!
0P
0Q
1*
#3110000
1!
1P
1Q
0*
0`
0T
1^
1R
1_
1S
#3120000
0!
0P
0Q
1*
#3130000
1!
1P
1Q
0*
1`
1T
0^
0R
0_
0S
1c
1W
0a
0U
0b
0V
0f
0Y
1d
1X
1e
#3140000
0!
0P
0Q
1*
#3150000
1!
1P
1Q
0*
0`
0T
1^
1R
1_
1S
#3160000
0!
0P
0Q
1*
#3170000
1!
1P
1Q
0*
1`
1T
0^
0R
0_
0S
0c
0W
1a
1U
1b
1V
#3180000
0!
0P
0Q
1*
#3190000
1!
1P
1Q
0*
0`
0T
1^
1R
1_
1S
#3200000
0!
0P
0Q
1*
#3210000
1!
1P
1Q
0*
1`
1T
0^
0R
0_
0S
1c
1W
0a
0U
0b
0V
1f
1Y
0d
0X
0e
1i
1[
0g
0Z
0h
1l
1]
0j
0\
1I
1#
0k
0n
1m
0J
0$
#3220000
0!
0P
0Q
1*
#3230000
1!
1P
1Q
0*
0`
0T
1^
1R
1_
1S
#3240000
0!
0P
0Q
1*
#3250000
1!
1P
1Q
0*
1`
1T
0^
0R
0_
0S
0c
0W
1a
1U
1b
1V
#3260000
0!
0P
0Q
1*
#3270000
1!
1P
1Q
0*
0`
0T
1^
1R
1_
1S
#3280000
0!
0P
0Q
1*
#3290000
1!
1P
1Q
0*
1`
1T
0^
0R
0_
0S
1c
1W
0a
0U
0b
0V
0f
0Y
1d
1X
1e
#3300000
0!
0P
0Q
1*
#3310000
1!
1P
1Q
0*
0`
0T
1^
1R
1_
1S
#3320000
0!
0P
0Q
1*
#3330000
1!
1P
1Q
0*
1`
1T
0^
0R
0_
0S
0c
0W
1a
1U
1b
1V
#3340000
0!
0P
0Q
1*
#3350000
1!
1P
1Q
0*
0`
0T
1^
1R
1_
1S
#3360000
0!
0P
0Q
1*
#3370000
1!
1P
1Q
0*
1`
1T
0^
0R
0_
0S
1c
1W
0a
0U
0b
0V
1f
1Y
0d
0X
0e
0i
0[
1g
1Z
1h
#3380000
0!
0P
0Q
1*
#3390000
1!
1P
1Q
0*
0`
0T
1^
1R
1_
1S
#3400000
0!
0P
0Q
1*
#3410000
1!
1P
1Q
0*
1`
1T
0^
0R
0_
0S
0c
0W
1a
1U
1b
1V
#3420000
0!
0P
0Q
1*
#3430000
1!
1P
1Q
0*
0`
0T
1^
1R
1_
1S
#3440000
0!
0P
0Q
1*
#3450000
1!
1P
1Q
0*
1`
1T
0^
0R
0_
0S
1c
1W
0a
0U
0b
0V
0f
0Y
1d
1X
1e
#3460000
0!
0P
0Q
1*
#3470000
1!
1P
1Q
0*
0`
0T
1^
1R
1_
1S
#3480000
0!
0P
0Q
1*
#3490000
1!
1P
1Q
0*
1`
1T
0^
0R
0_
0S
0c
0W
1a
1U
1b
1V
#3500000
0!
0P
0Q
1*
#3510000
1!
1P
1Q
0*
0`
0T
1^
1R
1_
1S
#3520000
0!
0P
0Q
1*
#3530000
1!
1P
1Q
0*
1`
1T
0^
0R
0_
0S
1c
1W
0a
0U
0b
0V
1f
1Y
0d
0X
0e
1i
1[
0g
0Z
0h
0l
0]
1j
1\
0I
0#
1k
#3540000
0!
0P
0Q
1*
#3550000
1!
1P
1Q
0*
0`
0T
1^
1R
1_
1S
#3560000
0!
0P
0Q
1*
#3570000
1!
1P
1Q
0*
1`
1T
0^
0R
0_
0S
0c
0W
1a
1U
1b
1V
#3580000
0!
0P
0Q
1*
#3590000
1!
1P
1Q
0*
0`
0T
1^
1R
1_
1S
#3600000
0!
0P
0Q
1*
