FPGAProgram/simulation/qsim/CODECSystem.msim.vcd
$comment
	File created using the following command:
		vcd file CODECSystem.msim.vcd -direction
$end
$date
	Wed Sep 02 13:14:36 2015
$end
$version
	ModelSim Version 10.1e
$end
$timescale
	1ps
$end
$scope module CodecConfig_vlg_vec_tst $end
$var reg 1 ! SCLK $end
$var wire 1 " SCINHELP $end
$var wire 1 # SCLKHELP $end
$var wire 1 $ sampler $end
$scope module i1 $end
$var wire 1 % gnd $end
$var wire 1 & vcc $end
$var wire 1 ' unknown $end
$var tri1 1 ( devclrn $end
$var tri1 1 ) devpor $end
$var tri1 1 * devoe $end
$var wire 1 + SCLK~input_o $end
$var wire 1 , SCLKHELP~output_o $end
$var wire 1 - SCINHELP~output_o $end
$upscope $end
$upscope $end
$enddefinitions $end
#0
$dumpvars
0!
0"
0#
x$
0%
1&
x'
1(
1)
1*
0+
0,
0-
$end
#50000
1!
1+
0$
#100000
0!
0+
1$
#150000
1!
1+
0$
#200000
0!
0+
1$
#250000
1!
1+
0$
#300000
0!
0+
1$
#350000
1!
1+
0$
#400000
0!
0+
1$
#450000
1!
1+
0$
#500000
0!
0+
1$
#550000
1!
1+
0$
#600000
0!
0+
1$
#650000
1!
1+
0$
#700000
0!
0+
1$
#750000
1!
1+
0$
#800000
0!
0+
1$
#850000
1!
1+
0$
#900000
0!
0+
1$
#950000
1!
1+
0$
